{
  "__type__": "cc.SpriteAtlas",
  "_name": "split face.plist",
  "_objFlags": 0,
  "_native": "",
  "_spriteFrames": {
    "Split face": {
      "__uuid__": "ff50c29e-f76f-4e63-a577-adb7e0d973d6"
    }
  }
}