{
  "__type__": "cc.AnimationClip",
  "_name": "eatFace",
  "_objFlags": 0,
  "_native": "",
  "_duration": 0.45,
  "sample": 60,
  "speed": 0.5,
  "wrapMode": 1,
  "curveData": {
    "comps": {
      "cc.Sprite": {
        "spriteFrame": [
          {
            "frame": 0,
            "value": {
              "__uuid__": "557897a7-d350-4b8b-bdb7-f07e5e006fbd"
            }
          },
          {
            "frame": 0.03333333333333333,
            "value": {
              "__uuid__": "3f7e49bd-6b7b-43f2-8e41-f761fcf8bf82"
            }
          },
          {
            "frame": 0.2,
            "value": {
              "__uuid__": "557897a7-d350-4b8b-bdb7-f07e5e006fbd"
            }
          },
          {
            "frame": 0.23333333333333334,
            "value": {
              "__uuid__": "4d53a305-a743-453f-abf4-e6572403ae88"
            }
          },
          {
            "frame": 0.43333333333333335,
            "value": {
              "__uuid__": "4d53a305-a743-453f-abf4-e6572403ae88"
            }
          }
        ]
      }
    }
  },
  "events": []
}