{
  "__type__": "cc.SpriteFrame",
  "content": {
    "name": "setting_test_frame",
    "texture": "c4209379-ecd2-41ac-9f81-ec7efc7380d9",
    "atlas": "",
    "rect": [
      0,
      0,
      787,
      626
    ],
    "offset": [
      0,
      0
    ],
    "originalSize": [
      787,
      626
    ],
    "capInsets": [
      0,
      0,
      0,
      0
    ]
  }
}