{
  "__type__": "cc.SpriteFrame",
  "content": {
    "name": "slider controller",
    "texture": "0b8988ca-a71c-40c4-9c5b-bf52fd986db5",
    "atlas": "",
    "rect": [
      0,
      0,
      144,
      138
    ],
    "offset": [
      0,
      0
    ],
    "originalSize": [
      144,
      138
    ],
    "capInsets": [
      0,
      0,
      0,
      0
    ]
  }
}