{
  "__type__": "cc.SpriteFrame",
  "content": {
    "name": "Dead cell 2",
    "texture": "d5cb8e21-6025-4179-b9b0-50cdd8695aaa",
    "atlas": "",
    "rect": [
      7,
      0,
      2037,
      2047
    ],
    "offset": [
      1.5,
      0.5
    ],
    "originalSize": [
      2048,
      2048
    ],
    "capInsets": [
      0,
      0,
      0,
      0
    ]
  }
}