{
  "__type__": "cc.SpriteAtlas",
  "_name": "LoginFace.plist",
  "_objFlags": 0,
  "_native": "",
  "_spriteFrames": {
    "Face1(log in)": {
      "__uuid__": "de120489-9fcb-49fd-a2e3-ea1e4a8f5f7b"
    },
    "Face2": {
      "__uuid__": "8e1945ba-f667-41c0-9875-ca9c01f55fe9"
    },
    "Face3(log in)": {
      "__uuid__": "233ff6fd-63ed-40a8-b8c6-4fa32dd93127"
    }
  }
}