{
  "__type__": "cc.SpriteFrame",
  "content": {
    "name": "Eat face 1",
    "texture": "bb3724a8-0793-4e95-b5e9-4906338da204",
    "atlas": "6c9a56af-eeb9-42d1-a12d-7019570a36a2",
    "rect": [
      0,
      0,
      2048,
      2048
    ],
    "offset": [
      0,
      0
    ],
    "originalSize": [
      2048,
      2048
    ],
    "capInsets": [
      0,
      0,
      0,
      0
    ]
  }
}