{
  "__type__": "cc.SpriteFrame",
  "content": {
    "name": "Dead cell",
    "texture": "904071a4-2c33-464b-93c4-d5fe34f15ef0",
    "atlas": "",
    "rect": [
      7,
      0,
      2037,
      2047
    ],
    "offset": [
      1.5,
      0.5
    ],
    "originalSize": [
      2048,
      2048
    ],
    "capInsets": [
      0,
      0,
      0,
      0
    ]
  }
}