{
  "__type__": "cc.SpriteFrame",
  "content": {
    "name": "tiger",
    "texture": "fd2ced2f-9975-451d-972a-f5db62104b42",
    "atlas": "",
    "rect": [
      2,
      6,
      2046,
      2032
    ],
    "offset": [
      1,
      2
    ],
    "originalSize": [
      2048,
      2048
    ],
    "capInsets": [
      0,
      0,
      0,
      0
    ]
  }
}